Assignment07: Machine Learning
…
Creating predictions tibble

## Selecting the Predictions
predictions <- bind_cols(
  restaurant_test,
  predict(object = cart_fit, new_data = restaurant_test),
  predict(object = cart_fit, new_data = restaurant_test, type = "prob")
) %>%
  mutate(color=as.factor(grade))

## The Predictions
select(predictions, grade, starts_with(".pred"))

# A tibble: 7,062 × 4
   grade .pred_class .pred_A `.pred_Not A`
   <fct> <fct>         <dbl>         <dbl>
 1 A     A             0.997       0.00274
 2 A     A             0.997       0.00274
 3 A     A             0.997       0.00274
 4 A     A             0.997       0.00274
 5 A     Not A         0.145       0.855  
 6 A     A             0.997       0.00274
 7 A     A             0.997       0.00274
 8 A     A             0.997       0.00274
 9 A     A             0.997       0.00274
10 A     A             0.997       0.00274
# … with 7,052 more rows
…
1. Creating Recipe

## Recipe
chicago_rec <-
  recipe(ridership ~ ., data = chicago_train) %>%
  step_dummy(all_nominal_predictors()) %>% ## Dummy encode categorical predictors
  step_normalize(all_numeric_predictors()) %>%   ## Center and scale all predictors
  step_nzv(all_predictors()) %>% ## Remove non-variance variables
  step_holiday(date) %>%
  step_rm(date)

## Baking Recipe
bake(prep(chicago_rec, training = chicago_train), new_data = chicago_train)

# A tibble: 4,258 × 64
    austin quincy_wells belmont archer…¹ oak_p…² western clark…³ clinton merch…⁴
     <dbl>        <dbl>   <dbl>    <dbl>   <dbl>   <dbl>   <dbl>   <dbl>   <dbl>
 1  0.0210      -0.0164   0.836    0.425  0.0489   0.407   0.331   0.687 -0.149 
 2 -1.27        -1.40    -1.33    -1.26  -1.30    -1.28   -1.29   -1.36  -0.757 
 3 -0.668       -1.36    -0.394   -0.507 -0.876   -0.679  -1.08   -0.744 -1.09  
 4  1.08         0.756    1.20     0.900  0.950    0.752   0.853   1.06   0.818 
 5  1.25         0.998    1.32     1.32   1.41     1.13    1.20    1.23   0.835 
 6  0.172        0.437    0.169    0.182  0.221    0.208   0.162   0.252  0.396 
 7  0.601        0.761    0.149    0.445  0.578    0.328   0.766   0.342  0.457 
 8  0.306        0.456    0.256    0.737  0.484    0.621   0.662   0.382  0.555 
 9  0.631        0.740    0.315    0.295  0.676    0.196   0.539   0.417  0.685 
10  0.290        0.191    1.51     0.278  0.314    0.375   0.240   0.296 -0.0464
# … with 4,248 more rows, 55 more variables: irving_park <dbl>,
#   washington_wells <dbl>, harlem <dbl>, monroe <dbl>, polk <dbl>,
#   ashland <dbl>, kedzie <dbl>, addison <dbl>, jefferson_park <dbl>,
#   montrose <dbl>, california <dbl>, temp_min <dbl>, temp <dbl>,
#   temp_max <dbl>, temp_change <dbl>, dew <dbl>, humidity <dbl>,
#   pressure <dbl>, pressure_change <dbl>, wind <dbl>, wind_max <dbl>,
#   gust_max <dbl>, percip_max <dbl>, weather_cloud <dbl>, …
…
## Averaged LM Error Metrics
lm_fit %>%
  collect_metrics(summarize=TRUE) %>%
  filter(.metric == "rmse")

# A tibble: 1 × 6
  .metric .estimator  mean     n std_err .config             
  <chr>   <chr>      <dbl> <int>   <dbl> <chr>               
1 rmse    standard    2.13    10  0.0767 Preprocessor1_Model1

# All KNN Error Metrics
knn_fit %>%
  collect_metrics(summarize = FALSE)

# A tibble: 160 × 6
   id     neighbors .metric .estimator .estimate .config             
   <chr>      <int> <chr>   <chr>          <dbl> <chr>               
 1 Fold01         1 rmse    standard        2.99 Preprocessor1_Model1
 2 Fold01         1 mae     standard        1.81 Preprocessor1_Model1
 3 Fold02         1 rmse    standard        3.06 Preprocessor1_Model1
 4 Fold02         1 mae     standard        1.82 Preprocessor1_Model1
 5 Fold03         1 rmse    standard        3.06 Preprocessor1_Model1
 6 Fold03         1 mae     standard        1.89 Preprocessor1_Model1
 7 Fold04         1 rmse    standard        3.39 Preprocessor1_Model1
 8 Fold04         1 mae     standard        2.08 Preprocessor1_Model1
 9 Fold05         1 rmse    standard        3.02 Preprocessor1_Model1
10 Fold05         1 mae     standard        1.90 Preprocessor1_Model1
# … with 150 more rows
…
