assignment06
…
## Applying to Testing Data
color_predict(marbles_test$size)

# A tibble: 25 × 1
   yhat 
   <chr>
 1 White
 2 Black
 3 Black
 4 Black
 5 Black
 6 Black
 7 Black
 8 White
 9 Black
10 Black
# … with 15 more rows
…
## Selecting the Predictions
predictions <- bind_cols(
  marbles_test,
  predict(object = cart_fit, new_data = marbles_test),
  predict(object = cart_fit, new_data = marbles_test, type = "prob")
) %>%
  mutate(color=as.factor(color))

## The Predictions
select(predictions, color, starts_with(".pred"))

# A tibble: 25 × 4
   color .pred_class .pred_black .pred_white
   <fct> <fct>             <dbl>       <dbl>
 1 black white             0.270       0.730
 2 black black             0.667       0.333
 3 black black             0.667       0.333
 4 white black             0.667       0.333
 5 black black             0.667       0.333
 6 black black             0.667       0.333
 7 black black             0.667       0.333
 8 white white             0.270       0.730
 9 white black             0.667       0.333
10 black black             0.667       0.333
# … with 15 more rows
…
